[
  {
    "id": 1,
    "title": "Start",
    "followedBy": [],
    "disabled": "false",
    "leadsTo": [
      "New",
      "Existing"
    ],
    "offers": [
      {
        "name": "demographics",
        "fields": [
          {
            "name": "member-name",
            "type": "text",
            "reqired": "true",
            "disables": []
          },
          {
            "name": "address",
            "type": "text",
            "required": "true",
            "disables": []
          }
        ]
      }
    ]
  },
  {
    "id": 2,
    "title": "New",
    "followedBy": ["Start"],
    "disabled": "false",
    "leadsTo": ["Active"],
    "offers": []
  },
  {
    "id": 3,
    "title": "Existing",
    "followedBy": ["Start"],
    "disabled": "false",
    "leadsTo": [
      "Active",
      "Retired"
    ],
    "offers": [
      {
        "name": "status",
        "fields": [
          {
            "name": "termination",
            "type": "radio",
            "reqired": "true",
            "disables": []
          },
          {
            "name": "retired",
            "type": "radio",
            "required": "true",
            "disables": []
          }
        ]
      }
    ]
  },
  {
    "id": 4,
    "title": "Active",
    "followedBy": ["Existing"],
    "disabled": "false",
    "leadsTo": [
      "Clergy",
      "Lay"
    ],
    "offers": [
      {
        "name": "employer",
        "fields": [
          {
            "name": "name",
            "type": "text",
            "reqired": "true",
            "disables": []
          },
          {
            "name": "address",
            "type": "text",
            "required": "true",
            "disables": []
          },
          {
            "name": "city",
            "type": "text",
            "required": "true",
            "disables": []
          },
          {
            "name": "state",
            "type": "text",
            "required": "true",
            "disables": []
          },
          {
            "name": "zip",
            "type": "text",
            "required": "true",
            "disables": []
          },
          {
            "name": "email",
            "type": "email",
            "required": "true",
            "disables": []
          }
        ]
      },
      {
        "name": "salary",
        "fields": [
          {
            "name": "base",
            "type": "text",
            "reqired": "true",
            "disables": []
          },
          {
            "name": "effective",
            "type": "date",
            "required": "false",
            "disables": []
          },
          {
            "name": "housing",
            "type": "checkbox",
            "required": "false",
            "disables": []
          }
        ]
      },
      {
        "name": "bonus",
        "fields": [
          {
            "name": "amount",
            "type": "number",
            "reqired": "true",
            "disables": []
          },
          {
            "name": "effective",
            "type": "date",
            "required": "true",
            "disables": []
          }
        ]
      }
    ]
  },
  {
    "id": 5,
    "title": "Retired",
    "followedBy": ["Existing"],
    "disabled": "false",
    "leadsTo": [
      "Clergy",
      "Lay"
    ],
    "offers": []
  },
  {
    "id": 6,
    "title": "Clergy",
    "followedBy": [
      "Active",
      "Retired"
    ],
    "disabled": "false",
    "leadsTo": [],
    "offers": [
      {
        "name": "robeInfo",
        "fields": [
          {
            "name": "size",
            "type": "text",
            "required": "false",
            "disables": []
          },
          {
            "name": "colour",
            "type": "text",
            "required": "false",
            "disables": []
          }
        ]
      },
      {
        "name": "clergySalary",
        "fields": [
          {
            "name": "allowance",
            "type": "number",
            "required": "true",
            "disables": []
          },
          {
            "name": "effective",
            "type": "date",
            "required": "false",
            "disables": []
          }
        ]
      }
    ]
  },
  {
    "id": 7,
    "title": "Lay",
    "followedBy": [
      "Active",
      "Retired"
    ],
    "disabled": "false",
    "leadsTo": [],
    "offers": []
  }
]